%YAML 1.1
%TAG !u! tag:unity3d.com,2011:
--- !u!1045 &1
EditorBuildSettings:
  m_ObjectHideFlags: 0
  serializedVersion: 2
  m_Scenes:
  - enabled: 1
    path: Assets/_Jam/Scenes/MainMenu.unity
    guid: 3cc2269bc165f6f4882b1ffbbc435f14
  - enabled: 1
    path: Assets/_Jam/Scenes/Level1.unity
    guid: 9fc0d4010bbf28b4594072e72b8655ab
  - enabled: 1
    path: Assets/_Jam/Scenes/Level2.unity
    guid: d84a815041188de4b8b35ebe011d5634
  - enabled: 1
    path: Assets/_Jam/Scenes/Level3.unity
    guid: 5dd56278b1344d24bb8f38e120e4d1bb
  - enabled: 1
    path: Assets/_Jam/Scenes/Escape.unity
    guid: c82e8dcce906a764da39f88f7cdfc78a
  - enabled: 1
    path: Assets/_Jam/Scenes/GameOver.unity
    guid: aa0aa56fd21b52340a502f5190c2c6fb
  m_configObjects: {}
